[[  53391.28154287  311073.54785526  224815.13984803 ...,  226031.58722786
     4802.62138642   14471.69966429]
 [ 172105.60298373   86471.46571371    8006.20861438 ...,    7636.43153136
   221733.23804168  221280.27532374]
 [ 171505.33021751   86263.66796752     498.91585645 ...,   15144.41103783
   221377.37469461  221284.2246718 ]
 ..., 
 [  54201.62923314  311883.44375775  225624.8594055  ...,  226837.17133492
     5398.21403887   14683.60171993]
 [  57578.35604322  315253.10349951  228992.93924422 ...,  230177.86351651
     8219.09482053   15848.30180945]
 [ 257624.31434121    2357.71723672   86254.31311327 ...,   87749.69021694
   307581.22366592  307541.73070626]]